mode: set
rc/pkg/user/user.go:32.40,37.2 1 1
rc/pkg/user/user.go:45.78,53.16 3 1
rc/pkg/user/user.go:58.2,58.25 1 1
rc/pkg/user/user.go:53.16,56.3 1 0
rc/pkg/user/user.go:61.83,69.19 5 1
rc/pkg/user/user.go:103.2,109.16 3 1
rc/pkg/user/user.go:114.2,114.33 1 1
rc/pkg/user/user.go:69.19,73.3 3 1
rc/pkg/user/user.go:73.8,84.17 5 1
rc/pkg/user/user.go:90.3,91.17 2 1
rc/pkg/user/user.go:95.3,96.17 2 1
rc/pkg/user/user.go:100.3,100.75 1 1
rc/pkg/user/user.go:84.17,88.4 3 1
rc/pkg/user/user.go:91.17,94.4 2 1
rc/pkg/user/user.go:96.17,99.4 2 0
rc/pkg/user/user.go:109.16,112.3 2 0
rc/pkg/user/user.go:117.62,120.16 3 1
rc/pkg/user/user.go:123.2,123.19 1 1
rc/pkg/user/user.go:120.16,122.3 1 1
